<?xml version="1.0" encoding="iso-8859-1"?>
<!-- Generator: Adobe Illustrator 18.1.1, SVG Export Plug-In . SVG Version: 6.00 Build 0)  -->
<svg version="1.1" id="Capa_1" xmlns="http://www.w3.org/2000/svg" xmlns:xlink="http://www.w3.org/1999/xlink" x="0px" y="0px"
	 viewBox="0 0 504.573 504.573" style="enable-background:new 0 0 504.573 504.573;" xml:space="preserve">
<g>
	<path style="fill:#000000;" d="M504.394,253.181c0.041-0.309,0.179-0.577,0.179-0.894c0-0.569-0.057-1.122-0.171-1.65
		c-0.431-68.565-27.93-132.463-77.53-180.08C380.556,26.068,319.681,1.146,255.481,0.382l0,0l0,0l-2.211-0.057l0,0l0,0
		c-0.057,0-0.772-0.016-0.829-0.016c-0.219,0-0.398,0.106-0.61,0.122c-0.211-0.016-0.406-0.106-0.626-0.106
		c-0.016,0-0.024,0-0.041,0l-2.211,0.057l0,0l0,0C184.754,1.154,123.879,26.076,77.563,70.556C27.54,118.555,0,183.096,0,252.287
		s27.54,133.731,77.538,181.739c44.845,43.057,103.322,67.711,165.238,69.938c0.439,0.081,0.862,0.236,1.309,0.244l1.431,0.041
		c0.033,0,0.065,0,0.089,0c0.033,0,0.073,0,0.106,0c0.016,0,0.041,0.008,0.057,0.008c0.081,0,0.553,0.008,0.634,0.008
		c0.252,0,0.471-0.122,0.715-0.146c0.61,0.008,1.211,0.057,1.829,0.065c0.033,0,0.065,0,0.098,0c1.097,0,2.17-0.285,3.178-0.715
		c1.008,0.431,2.073,0.715,3.178,0.715c0.033,0,0.065,0,0.098,0c0.813-0.008,1.618-0.073,2.43-0.089
		c0.309,0.041,0.585,0.154,0.902,0.154c0.033,0,0.065,0,0.089,0l2.243-0.065c0.406-0.008,0.756-0.171,1.138-0.236
		c61.68-2.382,119.905-27.019,164.596-69.93C476.668,386.229,504.151,322.03,504.394,253.181z M421.402,416.565
		c-1.926-1.959-3.959-3.764-5.942-5.649c-1.52-1.455-3.016-2.934-4.568-4.341c-4.324-3.926-8.746-7.706-13.29-11.299
		c-0.398-0.325-0.788-0.683-1.187-1c-4.918-3.845-9.99-7.438-15.135-10.884c-1.65-1.105-3.349-2.113-5.023-3.17
		c-2.382-1.52-4.731-3.105-7.161-4.528c0.675-1.536,1.252-3.13,1.902-4.682c0.845-2.04,1.699-4.089,2.504-6.153
		c1.154-2.951,2.227-5.934,3.284-8.933c0.699-1.967,1.414-3.918,2.073-5.918c1.114-3.357,2.122-6.763,3.113-10.169
		c0.496-1.658,1.024-3.3,1.488-4.975c1.39-5.08,2.666-10.201,3.804-15.363c0.122-0.553,0.203-1.114,0.325-1.658
		c0.992-4.641,1.886-9.315,2.674-14.006c0.301-1.796,0.52-3.585,0.788-5.381c0.52-3.487,1.024-6.974,1.431-10.478
		c0.228-2.057,0.406-4.121,0.602-6.186c0.309-3.284,0.593-6.576,0.805-9.876c0.138-2.13,0.228-4.251,0.325-6.381
		c0.073-1.715,0.203-3.422,0.252-5.137h93.576C486.048,319.347,462.622,374.248,421.402,416.565z M340.994,395.415
		c-2.073,3.65-4.268,7.202-6.495,10.722c-1.065,1.683-2.073,3.422-3.178,5.08c-3.357,5.064-6.844,10.006-10.502,14.778
		c-0.024,0.033-0.041,0.065-0.065,0.098c-3.69,4.804-7.56,9.413-11.534,13.9c-1.276,1.439-2.626,2.788-3.934,4.194
		c-2.772,2.983-5.576,5.934-8.478,8.763c-1.609,1.577-3.284,3.081-4.934,4.601c-2.739,2.528-5.511,4.999-8.348,7.389
		c-1.788,1.504-3.609,2.959-5.438,4.414c-2.869,2.26-5.788,4.463-8.746,6.592c-1.87,1.349-3.747,2.682-5.649,3.975
		c-1.024,0.691-2.097,1.309-3.129,1.983v-121.66c1.008,0.041,2.024,0.041,3.032,0.098c1.569,0.081,3.138,0.179,4.698,0.301
		c2.65,0.187,5.284,0.447,7.917,0.74c1.528,0.171,3.056,0.341,4.576,0.536c2.78,0.374,5.552,0.837,8.307,1.309
		c1.309,0.236,2.626,0.431,3.934,0.691c3.747,0.732,7.478,1.561,11.185,2.504c0.284,0.073,0.577,0.122,0.862,0.187
		c4.007,1.04,7.99,2.203,11.949,3.479c1.154,0.374,2.276,0.797,3.422,1.187c2.804,0.951,5.592,1.935,8.348,3.008
		c1.398,0.536,2.788,1.13,4.17,1.699c2.52,1.032,5.015,2.105,7.511,3.235c1.431,0.65,2.861,1.317,4.284,2.008
		c0.975,0.471,1.943,0.992,2.918,1.479c-1.089,2.17-2.17,4.341-3.308,6.47C343.262,391.261,342.164,393.366,340.994,395.415z
		 M235.078,475.952c-2.959-2.13-5.877-4.316-8.738-6.592c-1.837-1.455-3.658-2.91-5.454-4.422c-2.837-2.382-5.592-4.853-8.324-7.364
		c-1.666-1.528-3.349-3.04-4.967-4.625c-2.886-2.812-5.666-5.739-8.421-8.706c-1.325-1.423-2.707-2.796-3.999-4.251
		c-3.967-4.463-7.803-9.055-11.486-13.835c-0.089-0.114-0.171-0.228-0.252-0.35c-3.601-4.698-7.039-9.567-10.348-14.558
		c-1.114-1.683-2.146-3.447-3.227-5.17c-2.203-3.495-4.381-7.015-6.438-10.64c-1.171-2.065-2.276-4.186-3.398-6.283
		c-1.13-2.122-2.211-4.284-3.292-6.446c0.975-0.488,1.943-1.008,2.926-1.479c1.423-0.691,2.853-1.357,4.292-2.016
		c2.479-1.13,4.983-2.203,7.486-3.227c1.39-0.569,2.78-1.162,4.178-1.699c2.764-1.073,5.552-2.057,8.348-2.999
		c1.146-0.398,2.276-0.821,3.422-1.187c3.959-1.268,7.95-2.447,11.957-3.479c0.268-0.065,0.528-0.114,0.797-0.179
		c3.731-0.943,7.478-1.78,11.258-2.52c1.292-0.244,2.601-0.447,3.894-0.675c2.772-0.488,5.552-0.943,8.348-1.317
		c1.52-0.195,3.04-0.366,4.56-0.536c2.634-0.293,5.275-0.545,7.925-0.74c1.561-0.122,3.121-0.219,4.69-0.301
		c1.008-0.057,2.024-0.057,3.04-0.098v121.669c-1.032-0.675-2.097-1.292-3.121-1.983
		C238.826,478.635,236.948,477.302,235.078,475.952z M140.868,344.497c-1.008-3.064-1.935-6.161-2.837-9.267
		c-0.488-1.666-1.008-3.316-1.471-4.999c-1.154-4.235-2.203-8.503-3.17-12.794c-0.13-0.569-0.293-1.138-0.415-1.707
		c-1.065-4.877-1.992-9.779-2.812-14.721c-0.26-1.528-0.447-3.081-0.675-4.609c-0.512-3.43-1.008-6.869-1.398-10.323
		c-0.219-1.878-0.374-3.772-0.553-5.657c-0.301-3.138-0.569-6.283-0.772-9.437c-0.13-1.991-0.219-3.983-0.309-5.974
		c-0.065-1.528-0.081-3.056-0.122-4.585h117.523v83.464c-1.187,0.041-2.365,0.163-3.544,0.219c-1.772,0.089-3.536,0.187-5.3,0.325
		c-2.804,0.195-5.592,0.48-8.372,0.78c-1.666,0.187-3.325,0.358-4.983,0.577c-3.081,0.415-6.137,0.91-9.193,1.455
		c-1.317,0.228-2.642,0.423-3.95,0.675c-4.373,0.845-8.722,1.805-13.038,2.902c-0.236,0.065-0.471,0.146-0.707,0.203
		c-4.064,1.057-8.096,2.227-12.103,3.52c-1.333,0.423-2.642,0.91-3.967,1.357c-2.918,1-5.828,2.024-8.714,3.146
		c-1.528,0.585-3.048,1.211-4.568,1.845c-2.682,1.097-5.34,2.235-7.99,3.447c-1.561,0.707-3.121,1.439-4.682,2.187
		c-0.992,0.48-1.991,0.894-2.975,1.382c-0.52-1.203-1.065-2.406-1.569-3.625c-0.788-1.91-1.561-3.837-2.317-5.771
		c-1.073-2.764-2.081-5.552-3.073-8.348C142.153,348.261,141.486,346.383,140.868,344.497z M126.773,233.583
		c0.195-3.154,0.471-6.3,0.772-9.445c0.179-1.878,0.341-3.764,0.553-5.633c0.398-3.471,0.886-6.934,1.406-10.38
		c0.228-1.52,0.415-3.04,0.667-4.552c0.821-4.942,1.748-9.86,2.812-14.745c0.106-0.488,0.244-0.975,0.358-1.463
		c0.984-4.381,2.048-8.738,3.227-13.054c0.439-1.618,0.943-3.211,1.414-4.82c0.927-3.17,1.87-6.34,2.902-9.47
		c0.602-1.829,1.244-3.633,1.886-5.446c1.016-2.878,2.048-5.747,3.154-8.584c0.723-1.861,1.471-3.715,2.227-5.56
		c0.52-1.26,1.081-2.495,1.618-3.739c0.967,0.48,1.951,0.894,2.918,1.357c1.593,0.764,3.195,1.512,4.796,2.235
		c2.593,1.179,5.194,2.292,7.812,3.373c1.577,0.65,3.154,1.309,4.739,1.918c2.796,1.081,5.617,2.073,8.454,3.04
		c1.406,0.48,2.804,1,4.227,1.447c3.837,1.227,7.706,2.349,11.591,3.373c0.398,0.106,0.797,0.236,1.203,0.341
		c4.292,1.097,8.616,2.048,12.965,2.894c1.366,0.268,2.747,0.463,4.121,0.707c2.999,0.52,6.007,1.016,9.031,1.423
		c1.683,0.228,3.365,0.398,5.048,0.585c2.764,0.309,5.536,0.577,8.324,0.78c1.772,0.13,3.544,0.236,5.316,0.325
		c1.187,0.057,2.357,0.179,3.544,0.219v83.448H126.342c0.041-1.528,0.057-3.056,0.122-4.585
		C126.554,237.574,126.643,235.574,126.773,233.583z M163.425,109.142c2.065-3.633,4.243-7.153,6.454-10.665
		c1.073-1.707,2.097-3.463,3.211-5.137c3.316-5.007,6.771-9.892,10.38-14.607c0.065-0.089,0.13-0.179,0.195-0.268
		c3.682-4.788,7.535-9.405,11.51-13.875c1.301-1.471,2.682-2.845,4.016-4.276c2.747-2.951,5.519-5.877,8.389-8.673
		c1.634-1.593,3.325-3.105,4.999-4.65c2.715-2.504,5.471-4.967,8.291-7.34c1.805-1.52,3.642-2.983,5.479-4.446
		c2.853-2.252,5.755-4.438,8.706-6.56c1.878-1.357,3.764-2.699,5.69-3.991c1.016-0.691,2.081-1.309,3.113-1.975v121.66
		c-1.008-0.041-2.016-0.041-3.024-0.098c-1.585-0.081-3.162-0.187-4.739-0.309c-2.634-0.195-5.259-0.447-7.877-0.74
		c-1.536-0.171-3.081-0.341-4.609-0.545c-2.756-0.366-5.503-0.821-8.234-1.301c-1.341-0.236-2.691-0.431-4.024-0.691
		c-3.633-0.707-7.243-1.52-10.835-2.422c-0.406-0.106-0.821-0.179-1.219-0.285c-3.983-1.024-7.934-2.187-11.86-3.447
		c-1.244-0.398-2.471-0.862-3.715-1.284c-2.691-0.919-5.373-1.861-8.039-2.894c-1.479-0.569-2.951-1.187-4.422-1.796
		c-2.406-0.992-4.804-2.016-7.186-3.097c-1.528-0.691-3.056-1.414-4.576-2.146c-0.927-0.447-1.845-0.935-2.772-1.398
		c1.081-2.154,2.154-4.308,3.284-6.422C161.141,113.345,162.246,111.215,163.425,109.142z M269.413,28.669
		c2.918,2.097,5.796,4.259,8.624,6.495c1.861,1.471,3.723,2.959,5.544,4.495c2.812,2.365,5.552,4.812,8.259,7.308
		c1.674,1.544,3.373,3.064,5.007,4.666c2.886,2.812,5.674,5.755,8.429,8.722c1.317,1.414,2.682,2.772,3.967,4.227
		c7.958,8.974,15.355,18.582,22.118,28.791c1.073,1.626,2.065,3.325,3.105,4.975c2.252,3.56,4.471,7.153,6.568,10.844
		c1.154,2.016,2.227,4.089,3.325,6.145c1.154,2.154,2.235,4.349,3.341,6.535c-0.943,0.471-1.886,0.975-2.837,1.431
		c-1.488,0.715-2.967,1.414-4.471,2.089c-2.414,1.097-4.853,2.146-7.283,3.146c-1.455,0.593-2.894,1.203-4.349,1.764
		c-2.691,1.04-5.397,2-8.112,2.918c-1.219,0.415-2.422,0.87-3.642,1.26c-3.934,1.268-7.893,2.43-11.876,3.455
		c-0.406,0.106-0.813,0.179-1.203,0.276c-3.593,0.902-7.218,1.715-10.852,2.422c-1.341,0.26-2.691,0.463-4.032,0.699
		c-2.739,0.48-5.471,0.927-8.226,1.301c-1.528,0.203-3.081,0.374-4.617,0.545c-2.609,0.293-5.235,0.536-7.868,0.732
		c-1.569,0.122-3.154,0.219-4.739,0.309c-1,0.049-2.008,0.057-3.016,0.098V22.662c1.016,0.667,2.065,1.276,3.073,1.951
		C265.585,25.93,267.495,27.296,269.413,28.669z M363.542,160.019c1.024,3.113,1.967,6.267,2.877,9.421
		c0.48,1.626,0.984,3.235,1.439,4.869c1.154,4.251,2.203,8.535,3.178,12.843c0.13,0.561,0.285,1.114,0.406,1.683
		c1.065,4.869,1.992,9.779,2.812,14.713c0.26,1.544,0.447,3.113,0.683,4.674c0.512,3.406,1,6.82,1.39,10.25
		c0.219,1.902,0.382,3.804,0.561,5.706c0.293,3.129,0.561,6.259,0.764,9.397c0.13,2,0.219,3.999,0.301,5.999
		c0.073,1.528,0.089,3.056,0.13,4.585H260.561v-83.464c1.187-0.041,2.357-0.163,3.544-0.219c1.78-0.089,3.552-0.195,5.308-0.325
		c2.788-0.203,5.568-0.48,8.324-0.78c1.683-0.187,3.373-0.358,5.056-0.585c3.008-0.398,6.007-0.894,8.998-1.423
		c1.382-0.236,2.772-0.439,4.154-0.707c4.341-0.845,8.649-1.796,12.941-2.886c0.447-0.114,0.878-0.26,1.317-0.374
		c3.853-1.016,7.681-2.122,11.486-3.341c1.431-0.455,2.845-0.975,4.259-1.463c2.812-0.959,5.617-1.951,8.405-3.024
		c1.593-0.618,3.195-1.276,4.78-1.926c2.609-1.073,5.21-2.195,7.787-3.365c1.601-0.723,3.203-1.463,4.788-2.227
		c0.975-0.471,1.959-0.886,2.926-1.366c0.545,1.268,1.122,2.528,1.65,3.804c0.748,1.813,1.479,3.625,2.195,5.462
		c1.105,2.853,2.154,5.723,3.17,8.616C362.291,156.386,362.933,158.19,363.542,160.019z M377.645,270.982
		c-0.195,3.162-0.471,6.3-0.772,9.454c-0.179,1.878-0.341,3.764-0.553,5.641c-0.398,3.455-0.878,6.893-1.398,10.331
		c-0.228,1.528-0.423,3.073-0.675,4.601c-0.821,4.934-1.748,9.852-2.812,14.729c-0.122,0.536-0.268,1.065-0.39,1.593
		c-0.975,4.333-2.032,8.641-3.203,12.908c-0.447,1.65-0.959,3.276-1.439,4.91c-0.919,3.154-1.861,6.283-2.878,9.388
		c-0.602,1.845-1.252,3.666-1.894,5.495c-1.008,2.869-2.048,5.714-3.146,8.543c-0.723,1.87-1.479,3.731-2.235,5.584
		c-0.512,1.252-1.081,2.487-1.609,3.731c-0.984-0.488-1.975-0.902-2.959-1.374c-1.561-0.756-3.146-1.488-4.723-2.203
		c-2.617-1.187-5.251-2.317-7.909-3.406c-1.544-0.642-3.097-1.276-4.65-1.878c-2.853-1.105-5.714-2.113-8.592-3.097
		c-1.366-0.463-2.715-0.959-4.089-1.398c-3.926-1.26-7.893-2.414-11.868-3.455c-0.317-0.081-0.626-0.179-0.935-0.26
		c-4.308-1.105-8.641-2.065-13.014-2.902c-1.325-0.26-2.674-0.455-4.007-0.683c-3.032-0.528-6.08-1.04-9.137-1.447
		c-1.658-0.219-3.333-0.398-4.999-0.577c-2.78-0.309-5.56-0.577-8.356-0.78c-1.764-0.138-3.528-0.236-5.3-0.325
		c-1.187-0.065-2.349-0.179-3.544-0.219v-83.472h117.515c-0.041,1.528-0.057,3.056-0.13,4.585
		C377.865,266.999,377.776,268.991,377.645,270.982z M394.447,244.158c-0.057-2.065-0.211-4.121-0.309-6.186
		c-0.098-2.048-0.171-4.105-0.309-6.153c-0.219-3.357-0.528-6.698-0.854-10.031c-0.187-1.975-0.35-3.942-0.577-5.909
		c-0.439-3.699-0.975-7.364-1.536-11.039c-0.236-1.569-0.431-3.138-0.691-4.706c-0.862-5.162-1.861-10.307-2.983-15.412
		c-0.293-1.317-0.658-2.601-0.959-3.91c-0.894-3.812-1.813-7.608-2.845-11.372c-0.545-1.967-1.171-3.91-1.748-5.869
		c-0.902-3.064-1.821-6.129-2.821-9.161c-0.699-2.113-1.463-4.194-2.203-6.283c-1.008-2.837-2.032-5.666-3.121-8.47
		c-0.829-2.122-1.699-4.219-2.569-6.308c-0.618-1.488-1.179-3.008-1.821-4.479c2.463-1.439,4.828-3.048,7.243-4.576
		c1.634-1.032,3.292-2.024,4.91-3.097c5.178-3.455,10.266-7.072,15.217-10.941c0.293-0.228,0.561-0.488,0.854-0.715
		c4.65-3.674,9.177-7.543,13.615-11.575c1.512-1.374,2.967-2.821,4.454-4.235c2.008-1.91,4.064-3.739,6.015-5.723
		c41.212,42.317,64.638,97.218,66.614,156.15H394.447z M409.526,76.636c-1.829,1.845-3.633,3.715-5.503,5.487
		c-1.309,1.236-2.585,2.52-3.91,3.723c-4.357,3.959-8.803,7.787-13.38,11.38c-0.398,0.317-0.813,0.585-1.211,0.894
		c-4.219,3.268-8.535,6.357-12.924,9.299c-1.544,1.032-3.13,2.008-4.69,2.999c-1.918,1.219-3.885,2.341-5.836,3.503
		c-1.268-2.52-2.65-4.942-3.983-7.413c-0.845-1.569-1.658-3.17-2.536-4.723c-3.097-5.471-6.308-10.827-9.706-16.021
		c-0.593-0.902-1.236-1.764-1.837-2.658c-2.894-4.316-5.893-8.527-8.99-12.64c-1.187-1.569-2.39-3.097-3.601-4.633
		c-2.788-3.536-5.649-6.974-8.6-10.348c-1.187-1.357-2.349-2.739-3.56-4.064c-4.113-4.519-8.316-8.925-12.705-13.111
		c-0.284-0.276-0.593-0.528-0.886-0.805c-4.113-3.902-8.364-7.633-12.713-11.242c-1.439-1.187-2.894-2.333-4.357-3.495
		c-1.731-1.366-3.406-2.812-5.17-4.137C330.24,24.8,374.044,44.853,409.526,76.636z M215.871,22.744
		c-1.479,1.179-2.975,2.341-4.422,3.552c-4.3,3.568-8.511,7.267-12.583,11.128c-0.333,0.309-0.683,0.593-1.008,0.91
		c-4.373,4.186-8.576,8.576-12.672,13.087c-1.219,1.349-2.398,2.739-3.593,4.113c-2.926,3.349-5.771,6.771-8.543,10.291
		c-1.227,1.553-2.455,3.097-3.65,4.682c-3.081,4.089-6.064,8.283-8.941,12.567c-0.61,0.919-1.268,1.788-1.87,2.707
		c-3.398,5.194-6.617,10.543-9.706,16.021c-0.87,1.544-1.683,3.138-2.536,4.706c-1.333,2.471-2.715,4.902-3.991,7.421
		c-1.959-1.171-3.934-2.292-5.861-3.52c-1.553-0.984-3.113-1.943-4.641-2.967c-4.446-2.983-8.811-6.096-13.079-9.413
		c-0.35-0.268-0.715-0.504-1.057-0.78c-4.585-3.601-9.039-7.438-13.412-11.404c-1.325-1.195-2.593-2.471-3.894-3.707
		c-1.87-1.78-3.682-3.65-5.511-5.495c35.481-31.783,79.278-51.836,126.107-57.997C219.252,19.956,217.586,21.386,215.871,22.744z
		 M83.017,88.016c1.943,1.975,3.991,3.788,5.983,5.69c1.496,1.431,2.967,2.894,4.495,4.276c4.43,4.024,8.958,7.893,13.599,11.559
		c0.301,0.236,0.577,0.496,0.87,0.732c4.95,3.869,10.047,7.486,15.225,10.941c1.585,1.057,3.219,2.032,4.837,3.048
		c2.43,1.536,4.82,3.162,7.291,4.609c-0.707,1.634-1.333,3.308-2.016,4.95c-0.788,1.902-1.577,3.804-2.333,5.723
		c-1.203,3.097-2.341,6.226-3.447,9.364c-0.65,1.845-1.325,3.674-1.935,5.536c-1.162,3.503-2.219,7.056-3.251,10.608
		c-0.447,1.528-0.935,3.032-1.357,4.568c-1.398,5.113-2.691,10.266-3.829,15.469c-0.081,0.374-0.138,0.756-0.219,1.138
		c-1.04,4.812-1.967,9.657-2.78,14.518c-0.293,1.748-0.512,3.512-0.772,5.267c-0.52,3.512-1.024,7.023-1.431,10.551
		c-0.236,2.081-0.415,4.162-0.61,6.251c-0.309,3.243-0.585,6.487-0.797,9.746c-0.138,2.195-0.236,4.389-0.333,6.592
		c-0.073,1.666-0.203,3.333-0.252,4.999h-93.56C18.371,185.226,41.789,130.325,83.017,88.016z M109.971,260.415
		c0.041,1.666,0.179,3.333,0.252,4.999c0.089,2.195,0.187,4.389,0.333,6.584c0.203,3.276,0.488,6.544,0.797,9.803
		c0.195,2.057,0.366,4.121,0.602,6.17c0.406,3.56,0.919,7.104,1.447,10.657c0.26,1.723,0.471,3.463,0.756,5.186
		c0.837,4.991,1.78,9.966,2.853,14.9c0.049,0.244,0.089,0.496,0.146,0.74c1.146,5.219,2.439,10.388,3.845,15.526
		c0.406,1.479,0.878,2.926,1.309,4.398c1.049,3.617,2.13,7.218,3.3,10.778c0.61,1.837,1.268,3.625,1.91,5.446
		c1.114,3.17,2.252,6.324,3.471,9.445c0.748,1.91,1.536,3.812,2.325,5.698c0.683,1.65,1.309,3.325,2.016,4.958
		c-2.455,1.439-4.82,3.04-7.226,4.568c-1.65,1.04-3.316,2.032-4.934,3.121c-5.162,3.447-10.234,7.047-15.176,10.909
		c-0.366,0.276-0.707,0.602-1.065,0.886c-4.576,3.617-9.047,7.438-13.412,11.404c-1.528,1.39-3.008,2.861-4.511,4.292
		c-1.992,1.894-4.032,3.715-5.975,5.682c-41.236-42.317-64.663-97.218-66.638-156.15H109.971z M94.885,427.937
		c1.821-1.845,3.633-3.707,5.495-5.487c1.309-1.244,2.601-2.528,3.934-3.739c4.357-3.959,8.795-7.779,13.372-11.364
		c0.415-0.325,0.853-0.61,1.268-0.935c4.211-3.251,8.511-6.332,12.892-9.275c1.52-1.016,3.073-1.967,4.609-2.943
		c1.935-1.236,3.926-2.374,5.901-3.544c1.268,2.528,2.658,4.95,3.991,7.421c0.845,1.561,1.658,3.154,2.528,4.69
		c3.089,5.479,6.316,10.844,9.714,16.046c0.577,0.886,1.203,1.723,1.796,2.593c2.902,4.332,5.918,8.576,9.031,12.705
		c1.179,1.553,2.374,3.073,3.577,4.601c2.796,3.544,5.666,6.991,8.616,10.372c1.187,1.349,2.341,2.723,3.544,4.048
		c4.105,4.519,8.316,8.925,12.697,13.111c0.317,0.301,0.65,0.569,0.967,0.87c4.089,3.877,8.307,7.576,12.616,11.161
		c1.463,1.211,2.967,2.382,4.454,3.56c1.707,1.349,3.365,2.772,5.097,4.081C174.179,479.773,130.382,459.728,94.885,427.937z
		 M288.483,481.87c1.512-1.195,3.032-2.382,4.511-3.609c4.276-3.552,8.454-7.226,12.502-11.055c0.358-0.333,0.732-0.634,1.081-0.967
		c4.365-4.186,8.559-8.568,12.656-13.063c1.227-1.357,2.414-2.764,3.617-4.146c2.91-3.341,5.755-6.755,8.527-10.266
		c1.219-1.553,2.455-3.105,3.65-4.69c3.081-4.081,6.048-8.275,8.925-12.551c0.618-0.919,1.276-1.805,1.886-2.731
		c3.39-5.186,6.609-10.535,9.689-15.997c0.878-1.561,1.699-3.17,2.552-4.755c1.325-2.455,2.707-4.877,3.967-7.381
		c1.967,1.171,3.959,2.3,5.901,3.536c1.536,0.984,3.097,1.935,4.617,2.959c4.349,2.91,8.624,5.966,12.794,9.202
		c0.455,0.35,0.927,0.658,1.374,1.008c4.56,3.577,8.982,7.389,13.323,11.331c1.374,1.252,2.707,2.569,4.056,3.861
		c1.837,1.748,3.609,3.577,5.406,5.397c-35.489,31.783-79.286,51.836-126.107,57.989C285.15,484.626,286.792,483.211,288.483,481.87
		z"/>
</g>
<g>
</g>
<g>
</g>
<g>
</g>
<g>
</g>
<g>
</g>
<g>
</g>
<g>
</g>
<g>
</g>
<g>
</g>
<g>
</g>
<g>
</g>
<g>
</g>
<g>
</g>
<g>
</g>
<g>
</g>
</svg>
